Вычислить значение логического выражения при всех возможных значениях логических величин X, Y и Z:
а) не (X или Y) и (не X или не Z);
б) не (не X и Y) или (X и не Z);
в) X или не Y и не (X или не Z).

a) (!x || !z) == !(x && z)

xyz !(x || y) !(x && z)  res
000     1          1      1
001     1          1      1
010     0          1      0
011     0          1      0
100     0          1      0
110     0          1      0
101     0          0      0
111     0          0      0

b) !(!x && y) == (x || !y)
xyz (x || !y)  (x && !z) res
000     1          0      1
001     1          0      1
010     0          0      0
011     0          0      0
100     1          1      1
101     1          0      1
110     1          1      1
111     1          0      1

v) !y && !(x || !z) == !(x || y || !z0
xyz  x   !(x || y || !z)   res
000  0             0        0
001  0             1        1
010  0             0        0
011  1             0        1
100  1             0        1
101  1             0        1
110  1             0        1
111  1             0        1
